<svg xmlns="http://www.w3.org/2000/svg" width="24" height="22" viewBox="0 0 24 22">
    <g fill="#EF5C04" fill-rule="nonzero">
        <path d="M23.389 14.482a.611.611 0 0 0-.61.611v2.335a2.447 2.447 0 0 1-2.445 2.443H3.666a2.447 2.447 0 0 1-2.444-2.443v-2.335a.61.61 0 1 0-1.222 0v2.335a3.67 3.67 0 0 0 3.666 3.665h16.668A3.67 3.67 0 0 0 24 17.428v-2.335a.61.61 0 0 0-.611-.611z"/>
        <path d="M19.68 16.89H4.32a.611.611 0 0 0 0 1.221h15.36a.61.61 0 1 0 0-1.222zM18.135 4.96L13.018.39a1.526 1.526 0 0 0-2.036 0L5.865 4.96a.61.61 0 1 0 .814.912l4.71-4.208v11.842a.611.611 0 0 0 1.222 0V1.664l4.71 4.208a.609.609 0 0 0 .863-.048.611.611 0 0 0-.049-.863z"/>
    </g>
</svg>
